Preliminary Results
…
# elected to remove the 5 NA PTSD patients
audio <- audio[!is.na(audio$pcl_1m_cutoff), ]
audio$pcl_1m_cutoff <- as.factor(audio$pcl_1m_cutoff)
audio$Sex <- as.factor(audio$Sex)
audio$Hispanic <- as.factor(audio$Hispanic)
as.tibble(audio)

## # A tibble: 76 x 46
##    study_id pcl_1m_cutoff Sex   SelfReport_Age Hispanic Race  suds_1m
##  *    <int> <fct>         <fct>          <int> <fct>    <fct>   <int>
##  1     1069 0             0                 31 0        Blac      NA
##  2     1264 1             1                 55 0        Other      90
##  3     1290 1             1                 28 0        Blac      70
##  4     1297 0             1                 61 0        White      65
##  5     1051 0             1                 24 1        Other      NA
##  6     1237 0             0                 27 0        White      90
##  7     1005 0             1                 53 1        White      NA
##  8     1230 1             0                 36 0        White      60
##  9     1298 0             1                 67 0        White      20
## 10     1068 0             0                 62 0        White      67
## # ... with 66 more rows, and 39 more variables: asd_1m <int>,
## #   cds_1m <int>, cesd_1m <int>, k6_1m <int>, lss_1m <dbl>,
## #   pact_forwardfocusraw_1m <dbl>, pact_traumafocusraw_1m <dbl>,
## #   pact_flex1raw_1m <dbl>, pact_flex2raw_1m <int>, panas_positive <int>,
## #   panas_negativepcl5_1m <int>, scl_total_1m_23 <dbl>,
## #   scl_anx_1m_23 <dbl>, scl_dep_1m <dbl>, scl_phob_1m <dbl>,
## #   scl_som_1m <dbl>, scl_total_1m <dbl>, scl_anx_1m <dbl>,
## #   psqi_global_1m <int>, TOT_FRAME <int>, AUD_INTENSITY_FRAMES <int>,
## #   AUD_INTENSITY_MEAN <dbl>, AUD_INTENSITY_MIN <dbl>,
…
# adjust levels for pcl_1m_cutoff to run in model
levels(audio_ptsd$pcl_1m_cutoff) <- c("No_PTSD", "PTSD")

as.tibble(audio_ptsd)

## # A tibble: 76 x 25
##    pcl_1m_cutoff Sex   SelfReport_Age Hispanic Race  TOT_FRAME
##  * <fct>         <fct>          <int> <fct>    <fct>     <int>
##  1 No_PTSD       0                 31 0        Blac     35378
##  2 PTSD          1                 55 0        Other     79410
##  3 PTSD          1                 28 0        Blac     85710
##  4 No_PTSD       1                 61 0        White     86850
##  5 No_PTSD       1                 24 1        Other     63270
##  6 No_PTSD       0                 27 0        White    103380
##  7 No_PTSD       1                 53 1        White     57000
##  8 PTSD          0                 36 0        White     87660
##  9 No_PTSD       1                 67 0        White     55310
## 10 No_PTSD       0                 62 0        White     69720
## # ... with 66 more rows, and 19 more variables:
## #   AUD_INTENSITY_FRAMES <int>, AUD_INTENSITY_MEAN <dbl>,
## #   AUD_INTENSITY_MIN <dbl>, AUD_INTENSITY_MAX <dbl>, AUD_FF_FRAMES <int>,
## #   AUD_FF_MEAN <dbl>, AUD_FF_MIN <dbl>, AUD_FF_MAX <dbl>,
## #   AUD_HNR_FRAMES <int>, AUD_HNR_MEAN <dbl>, AUD_HNR_MIN <dbl>,
## #   AUD_HNR_MAX <dbl>, AUD_GNE_FRAMES <int>, AUD_GNE_MEAN <dbl>,
## #   AUD_GNE_MIN <int>, AUD_GNE_MAX <dbl>, VOICE_FRAME_COUNT <int>,
## #   VFS_TOTAL_COUNT <int>, VFS_PERCT <dbl>
…
